{
  "SysHead": {
    "SvcCd": "##request_SvcCd##",
    "ScnCd": "##request_ScnCd##",
    "CnsmrSysID": "##request_CnsmrSysID##",
    "CnsmrSrlNo": "##request_CnsmrSrlNo##",
    "GlblSrlNo": "##request_GlblSrlNo##",
    "TxnDt": "##request_TxnDt##",
    "TxnTm": "##request_TxnTm##",
    "PvdrSysID": "",
    "PvdrSrlNo": "##method_date(yyyyMMdd)##YDP1##method_seq(7)##",
    "RetSt": "S",
    "RetInfArry": [{
      "RetCd": "000001",
      "RetMsg": "户名和核心户名不符"
    }]
  },
  "BODY": {
    "ClntChinNm": "##request_CustNm##0##method_seq(6)##",
    "ClntEnNm": "",
    "CertTp": "##request_CertTp##",
    "CertNo": "##request_CertNo##"
  }
}