{
  "SysHead": {
    "SvcCd": "##request_SvcCd##",
    "ScnCd": "##request_ScnCd##",
    "CnsmrSysID": "##request_CnsmrSysID##",
    "CnsmrSrlNo": "##request_CnsmrSrlNo##",
    "GlblSrlNo": "##request_GlblSrlNo##",
    "TxnDt": "##request_TxnDt##",
    "TxnTm": "##request_TxnTm##",
    "PvdrSysID": "",
    "PvdrSrlNo": "##method_date(yyyyMMdd)##YDP1##method_seq(7)##",
    "RetSt": "S",
    "RetInfArry": [{
      "RetCd": "000001",
      "RetMsg": "FAIL"
    }]
  },
  "BODY": {
    "AcctNo": "##request_CustNm##",
    "CoreClntNo": "57##request_CustNm##",
    "AcctCtgry": "1",
    "AcctLvl": "1",
    "MoreAcctlInfArry": [{
      "AcctSt": "1",
      "DrmtAcctFlg": "1"
    }]
  }
}