{H:04##request_InstdDrctPty##DCPS##request_InstgDrctPty##DCPS##method_date(yyyyMMddHHmmss)##XMLdcep.911.001.01     ##method_date(yyyyMMdd)####method_seq(28)##                                            3D                                       }
<?xml version="1.0" encoding="UTF-8"?>

<Document xmlns="urn:cbcc:std:dcep:2020:tech:xsd:dcep.911.001.01" xmlns:xsi="http://www.w3.org/2001/XMLSchema-instance">
	<Fault>
		<faultcode>DCEPO0001</faultcode>
		<faultstring>核签未通过</faultstring>
		<faultactor>##request_InstdDrctPty##</faultactor>
		<detail>报文丢弃通知报文示例</detail>
	</Fault>
</Document>
